* SPICE NETLIST
***************************************

.SUBCKT mimcap_g13 plus minus
.ENDS
***************************************
.SUBCKT spiral_inductor_lvs pos neg
.ENDS
***************************************
.SUBCKT inverter VDD VSS OUT IN
** N=4 EP=4 IP=0 FDC=2
M0 OUT IN VSS VSS nmos L=1.3e-07 W=8e-07 $X=240 $Y=-4200 $D=19
M1 OUT IN VDD VDD pmos L=1.3e-07 W=2e-06 $X=240 $Y=-1460 $D=25
.ENDS
***************************************
.SUBCKT transmissiongate VDD IN OUT VSS IN1 IN2
** N=6 EP=6 IP=0 FDC=2
M0 OUT IN2 IN VSS nmos L=1.3e-07 W=8e-07 $X=-30 $Y=-1755 $D=19
M1 OUT IN1 IN VDD pmos L=1.3e-07 W=2e-06 $X=-30 $Y=610 $D=25
.ENDS
***************************************
.SUBCKT lab2_dff VDD VSS CLK D Q
** N=11 EP=5 IP=44 FDC=18
X0 VDD VSS 6 CLK inverter $T=-14810 3525 0 0 $X=-16375 $Y=-1985
X1 VDD VSS 8 5 inverter $T=-1055 3560 0 0 $X=-2620 $Y=-1950
X2 VDD VSS 7 8 inverter $T=3905 3580 0 0 $X=2340 $Y=-1930
X3 VDD VSS Q 10 inverter $T=22460 4055 0 0 $X=20895 $Y=-1455
X4 VDD VSS 9 Q inverter $T=27170 3985 0 0 $X=25605 $Y=-1525
X5 VDD D 5 VSS CLK 6 transmissiongate $T=-9905 2195 0 0 $X=-11540 $Y=-555
X6 VDD 5 7 VSS 6 CLK transmissiongate $T=-5405 2230 0 0 $X=-7040 $Y=-520
X7 VDD 8 10 VSS 6 CLK transmissiongate $T=9460 2310 0 0 $X=7825 $Y=-440
X8 VDD 10 9 VSS CLK 6 transmissiongate $T=17590 2520 0 0 $X=15955 $Y=-230
.ENDS
***************************************
