* SPICE NETLIST
***************************************

.SUBCKT mimcap_g13 plus minus
.ENDS
***************************************
.SUBCKT spiral_inductor_lvs pos neg
.ENDS
***************************************
.SUBCKT inverter VDD VSS OUT IN
** N=4 EP=4 IP=0 FDC=2
M0 OUT IN VSS VSS nmos L=1.3e-07 W=8e-07 $X=240 $Y=-4200 $D=19
M1 OUT IN VDD VDD pmos L=1.3e-07 W=2e-06 $X=240 $Y=-1460 $D=25
.ENDS
***************************************
.SUBCKT transmissiongate VDD IN OUT VSS IN1 IN2
** N=6 EP=6 IP=0 FDC=2
M0 OUT IN2 IN VSS nmos L=1.3e-07 W=8e-07 $X=-30 $Y=-1755 $D=19
M1 OUT IN1 IN VDD pmos L=1.3e-07 W=2e-06 $X=-30 $Y=610 $D=25
.ENDS
***************************************
.SUBCKT lab2_dff VDD VSS CLK D Q
** N=11 EP=5 IP=44 FDC=18
X0 VDD VSS 7 CLK inverter $T=-14810 3525 0 0 $X=-16375 $Y=-1985
X1 VDD VSS 9 6 inverter $T=-1055 3560 0 0 $X=-2620 $Y=-1950
X2 VDD VSS 8 9 inverter $T=3905 3580 0 0 $X=2340 $Y=-1930
X3 VDD VSS Q 11 inverter $T=22460 4055 0 0 $X=20895 $Y=-1455
X4 VDD VSS 10 Q inverter $T=27170 3985 0 0 $X=25605 $Y=-1525
X5 VDD D 6 VSS CLK 7 transmissiongate $T=-9905 2195 0 0 $X=-11540 $Y=-555
X6 VDD 6 8 VSS 7 CLK transmissiongate $T=-5405 2230 0 0 $X=-7040 $Y=-520
X7 VDD 9 11 VSS 7 CLK transmissiongate $T=9460 2310 0 0 $X=7825 $Y=-440
X8 VDD 11 10 VSS CLK 7 transmissiongate $T=17590 2520 0 0 $X=15955 $Y=-230
.ENDS
***************************************
.SUBCKT lab4_8bitdff1_1 CLK IN[0] IN[4] OUT[0] OUT[4] IN[1] IN[5] OUT[1] OUT[5] IN[2] IN[6] OUT[2] OUT[6] IN[3] IN[7] VSS OUT[3] OUT[7] VDD
** N=19 EP=19 IP=40 FDC=144
X0 VDD VSS CLK IN[0] OUT[0] lab2_dff $T=-50220 18855 0 0 $X=-69695 $Y=12210
X1 VDD VSS CLK IN[4] OUT[4] lab2_dff $T=-49500 -35600 1 0 $X=-68975 $Y=-48325
X2 VDD VSS CLK IN[1] OUT[1] lab2_dff $T=5360 17775 0 0 $X=-14115 $Y=11130
X3 VDD VSS CLK IN[5] OUT[5] lab2_dff $T=6305 -35740 1 0 $X=-13170 $Y=-48465
X4 VDD VSS CLK IN[2] OUT[2] lab2_dff $T=60845 17775 0 0 $X=41370 $Y=11130
X5 VDD VSS CLK IN[6] OUT[6] lab2_dff $T=62110 -35885 1 0 $X=42635 $Y=-48610
X6 VDD VSS CLK IN[3] OUT[3] lab2_dff $T=117815 17575 0 0 $X=98340 $Y=10930
X7 VDD VSS CLK IN[7] OUT[7] lab2_dff $T=118630 -36025 1 0 $X=99155 $Y=-48750
.ENDS
***************************************
